%YAML 1.1
%TAG !u! tag:unity3d.com,2011:
--- !u!1001 &4613029191493139365
PrefabInstance:
  m_ObjectHideFlags: 0
  serializedVersion: 2
  m_Modification:
    m_TransformParent: {fileID: 0}
    m_Modifications:
    - target: {fileID: 2650878764848028017, guid: 508d7bb0268164273ae808976dac5d38,
        type: 3}
      propertyPath: m_Name
      value: LoadColliderAxesPrefab Variant
      objectReference: {fileID: 0}
    - target: {fileID: 2656554768646538849, guid: 508d7bb0268164273ae808976dac5d38,
        type: 3}
      propertyPath: m_LocalPosition.x
      value: 5.894252
      objectReference: {fileID: 0}
    - target: {fileID: 2656554768646538849, guid: 508d7bb0268164273ae808976dac5d38,
        type: 3}
      propertyPath: m_LocalPosition.y
      value: -7.2609835
      objectReference: {fileID: 0}
    - target: {fileID: 2656554768646538849, guid: 508d7bb0268164273ae808976dac5d38,
        type: 3}
      propertyPath: m_LocalPosition.z
      value: -0.5385238
      objectReference: {fileID: 0}
    - target: {fileID: 2656554768646538849, guid: 508d7bb0268164273ae808976dac5d38,
        type: 3}
      propertyPath: m_LocalRotation.x
      value: 0
      objectReference: {fileID: 0}
    - target: {fileID: 2656554768646538849, guid: 508d7bb0268164273ae808976dac5d38,
        type: 3}
      propertyPath: m_LocalRotation.y
      value: 0
      objectReference: {fileID: 0}
    - target: {fileID: 2656554768646538849, guid: 508d7bb0268164273ae808976dac5d38,
        type: 3}
      propertyPath: m_LocalRotation.z
      value: 0
      objectReference: {fileID: 0}
    - target: {fileID: 2656554768646538849, guid: 508d7bb0268164273ae808976dac5d38,
        type: 3}
      propertyPath: m_LocalRotation.w
      value: 1
      objectReference: {fileID: 0}
    - target: {fileID: 2656554768646538849, guid: 508d7bb0268164273ae808976dac5d38,
        type: 3}
      propertyPath: m_RootOrder
      value: 0
      objectReference: {fileID: 0}
    - target: {fileID: 2656554768646538849, guid: 508d7bb0268164273ae808976dac5d38,
        type: 3}
      propertyPath: m_LocalEulerAnglesHint.x
      value: 0
      objectReference: {fileID: 0}
    - target: {fileID: 2656554768646538849, guid: 508d7bb0268164273ae808976dac5d38,
        type: 3}
      propertyPath: m_LocalEulerAnglesHint.y
      value: 0
      objectReference: {fileID: 0}
    - target: {fileID: 2656554768646538849, guid: 508d7bb0268164273ae808976dac5d38,
        type: 3}
      propertyPath: m_LocalEulerAnglesHint.z
      value: 0
      objectReference: {fileID: 0}
    - target: {fileID: 2652286941607927301, guid: 508d7bb0268164273ae808976dac5d38,
        type: 3}
      propertyPath: m_IsActive
      value: 0
      objectReference: {fileID: 0}
    - target: {fileID: 2651328102566905571, guid: 508d7bb0268164273ae808976dac5d38,
        type: 3}
      propertyPath: m_IsActive
      value: 0
      objectReference: {fileID: 0}
    - target: {fileID: 2651355636810329201, guid: 508d7bb0268164273ae808976dac5d38,
        type: 3}
      propertyPath: m_IsActive
      value: 0
      objectReference: {fileID: 0}
    m_RemovedComponents: []
  m_SourcePrefab: {fileID: 100100000, guid: 508d7bb0268164273ae808976dac5d38, type: 3}
