%YAML 1.1
%TAG !u! tag:unity3d.com,2011:
--- !u!1 &2796709251593253476
GameObject:
  m_ObjectHideFlags: 0
  m_CorrespondingSourceObject: {fileID: 0}
  m_PrefabInstance: {fileID: 0}
  m_PrefabAsset: {fileID: 0}
  serializedVersion: 6
  m_Component:
  - component: {fileID: 2796709251593253478}
  - component: {fileID: 2796709251593253477}
  m_Layer: 0
  m_Name: vans_box_up
  m_TagString: Untagged
  m_Icon: {fileID: 0}
  m_NavMeshLayer: 0
  m_StaticEditorFlags: 0
  m_IsActive: 1
--- !u!4 &2796709251593253478
Transform:
  m_ObjectHideFlags: 0
  m_CorrespondingSourceObject: {fileID: 0}
  m_PrefabInstance: {fileID: 0}
  m_PrefabAsset: {fileID: 0}
  m_GameObject: {fileID: 2796709251593253476}
  m_LocalRotation: {x: -0, y: -0, z: -0, w: 1}
  m_LocalPosition: {x: 386, y: 718, z: 0}
  m_LocalScale: {x: 1, y: 1, z: 1}
  m_Children: []
  m_Father: {fileID: 0}
  m_RootOrder: 0
  m_LocalEulerAnglesHint: {x: 0, y: 0, z: 0}
--- !u!114 &2796709251593253477
MonoBehaviour:
  m_ObjectHideFlags: 0
  m_CorrespondingSourceObject: {fileID: 0}
  m_PrefabInstance: {fileID: 0}
  m_PrefabAsset: {fileID: 0}
  m_GameObject: {fileID: 2796709251593253476}
  m_Enabled: 1
  m_EditorHideFlags: 0
  m_Script: {fileID: 11500000, guid: f6f94aa2254de4d879927d3b4b479815, type: 3}
  m_Name: 
  m_EditorClassIdentifier: 
  _referenceImage: {fileID: 11400000, guid: 9eaab1cc4faa04c768a07af2c29fa351, type: 2}
  _prefabToGenerate: {fileID: 4530501809198807976, guid: 746113727208f1e4e803d3a628885c1d,
    type: 3}
  _size: {x: 0.335, y: 0.105, z: 0.145}
  _anchor: {x: 0.5, y: 1, z: 0.5}
  _isNeedUpdate: 1
  _xRotation: 0
  _yRotation: 1
  _zRotation: 0
  _touchEnabled: 1
