%YAML 1.1
%TAG !u! tag:unity3d.com,2011:
--- !u!114 &11400000
MonoBehaviour:
  m_ObjectHideFlags: 0
  m_CorrespondingSourceObject: {fileID: 0}
  m_PrefabInstance: {fileID: 0}
  m_PrefabAsset: {fileID: 0}
  m_GameObject: {fileID: 0}
  m_Enabled: 1
  m_EditorHideFlags: 0
  m_Script: {fileID: 11500000, guid: 0414577f9c6b244e696949154859a4af, type: 3}
  m_Name: no_man_sky_box_top
  m_EditorClassIdentifier: 
  imageName: no_man_sky_box_top
  imageTexture: {fileID: 2800000, guid: ec0dcb49cd04f4cf9a87e298728e981a, type: 3}
  physicalSize: 0.145
